/Users/alvaro/NetBeansProjects/estudianes/estudiates-rest/src/main/java/root/services/AppConfig.java
/Users/alvaro/NetBeansProjects/estudianes/estudiates-rest/src/main/java/root/model/dao/MasterEstudianteDAO.java
/Users/alvaro/NetBeansProjects/estudianes/estudiates-rest/src/main/java/root/persistence/entities/MasterEstudiante.java
/Users/alvaro/NetBeansProjects/estudianes/estudiates-rest/src/main/java/root/services/EstudianteRest.java
/Users/alvaro/NetBeansProjects/estudianes/estudiates-rest/src/main/java/root/controller/Controller.java
/Users/alvaro/NetBeansProjects/estudianes/estudiates-rest/src/main/java/root/model/dao/exceptions/NonexistentEntityException.java
/Users/alvaro/NetBeansProjects/estudianes/estudiates-rest/src/main/java/root/model/dao/exceptions/PreexistingEntityException.java
/Users/alvaro/NetBeansProjects/estudianes/estudiates-rest/src/main/java/root/resources/JavaEE8Resource.java
/Users/alvaro/NetBeansProjects/estudianes/estudiates-rest/src/main/java/root/model/dao/exceptions/IllegalOrphanException.java
